<?xml version="1.0" encoding="UTF-8" standalone="no"?>
<!-- Created with Inkscape (http://www.inkscape.org/) -->

<svg
   xmlns:dc="http://purl.org/dc/elements/1.1/"
   xmlns:cc="http://creativecommons.org/ns#"
   xmlns:rdf="http://www.w3.org/1999/02/22-rdf-syntax-ns#"
   xmlns:svg="http://www.w3.org/2000/svg"
   xmlns="http://www.w3.org/2000/svg"
   xmlns:sodipodi="http://sodipodi.sourceforge.net/DTD/sodipodi-0.dtd"
   xmlns:inkscape="http://www.inkscape.org/namespaces/inkscape"
   width="22px"
   height="22px"
   viewBox="0 0 22 22"
   version="1.1"
   id="SVGRoot"
   inkscape:export-filename="/Users/coda/ac-power.png"
   inkscape:export-xdpi="96"
   inkscape:export-ydpi="96"
   inkscape:version="0.92.2 5c3e80d, 2017-08-06"
   sodipodi:docname="ac-adapter.svg">
  <sodipodi:namedview
     id="base"
     pagecolor="#ffffff"
     bordercolor="#666666"
     borderopacity="1.0"
     inkscape:pageopacity="0.0"
     inkscape:pageshadow="2"
     inkscape:zoom="11.636364"
     inkscape:cx="9.9622798"
     inkscape:cy="12.747574"
     inkscape:document-units="px"
     inkscape:current-layer="layer1"
     showgrid="false"
     inkscape:window-width="819"
     inkscape:window-height="708"
     inkscape:window-x="391"
     inkscape:window-y="57"
     inkscape:window-maximized="0"
     inkscape:grid-bbox="true" />
  <defs
     id="defs18" />
  <metadata
     id="metadata21">
    <rdf:RDF>
      <cc:Work
         rdf:about="">
        <dc:format>image/svg+xml</dc:format>
        <dc:type
           rdf:resource="http://purl.org/dc/dcmitype/StillImage" />
        <dc:title></dc:title>
      </cc:Work>
    </rdf:RDF>
  </metadata>
  <g
     id="layer1"
     inkscape:groupmode="layer"
     inkscape:label="Layer 1">
    <path
       d="M 13.041016,1.0957031 V 4.7480469 H 11 8.9589845 V 1.1386719 H 7.7988282 v 3.609375 H 4.9804689 v 6.2734371 h 0.013672 a 6.015625,6.015625 0 0 0 4.7382811,5.617188 v 4.265625 h 2.535156 v -4.265625 a 6.015625,6.015625 0 0 0 4.736328,-5.617188 h 0.01563 V 4.7480469 H 14.201172 V 1.0957031 Z"
       id="path3728"
       inkscape:connector-curvature="0" />
  </g>
</svg>
