#define shot_cursor_width 32
#define shot_cursor_height 20
#define shot_cursor_x_hot 7
#define shot_cursor_y_hot 7
static unsigned char shot_cursor_bits[] = {
   0x00, 0x00, 0x00, 0x00, 0x80, 0x00, 0x00, 0x00, 0x80, 0x00, 0x00, 0x00,
   0x80, 0x00, 0x00, 0x00, 0x80, 0x00, 0x00, 0x00, 0x80, 0x00, 0x00, 0x00,
   0x80, 0x00, 0x00, 0x00, 0xfe, 0x3f, 0x00, 0x00, 0x80, 0x00, 0x00, 0x00,
   0x80, 0x00, 0x00, 0x00, 0x80, 0x00, 0x00, 0x00, 0x80, 0xc0, 0x03, 0x00,
   0x80, 0x40, 0x02, 0x00, 0x80, 0xf8, 0x1f, 0x00, 0x00, 0x78, 0x1e, 0x00,
   0x00, 0xb8, 0x1d, 0x00, 0x00, 0xb8, 0x1d, 0x00, 0x00, 0x78, 0x1e, 0x00,
   0x00, 0xf8, 0x1f, 0x00, 0x00, 0x00, 0x00, 0x00 };
